{
  "dev": {
    "awscloudformation": {
      "AuthRoleName": "amplify-tictactoe-dev-213115-authRole",
      "UnauthRoleArn": "arn:aws:iam::295399283586:role/amplify-tictactoe-dev-213115-unauthRole",
      "AuthRoleArn": "arn:aws:iam::295399283586:role/amplify-tictactoe-dev-213115-authRole",
      "Region": "us-east-1",
      "DeploymentBucketName": "amplify-tictactoe-dev-213115-deployment",
      "UnauthRoleName": "amplify-tictactoe-dev-213115-unauthRole",
      "StackName": "amplify-tictactoe-dev-213115",
      "StackId": "arn:aws:cloudformation:us-east-1:295399283586:stack/amplify-tictactoe-dev-213115/7c653ec0-c3e1-11eb-9062-0a5846cf76ed",
      "AmplifyAppId": "d2sgdcfr6fjm9a"
    },
    "categories": {
      "auth": {
        "tictactoe8882a9fa": {}
      },
      "function": {
        "startGame": {
          "deploymentBucketName": "amplify-tictactoe-dev-213115-deployment",
          "s3Key": "amplify-builds/startGame-376c7065322f4e6a4a55-build.zip"
        },
        "postConfirmation": {
          "deploymentBucketName": "amplify-tictactoe-dev-213115-deployment",
          "s3Key": "amplify-builds/postConfirmation-7367564e51797a35576c-build.zip"
        },
        "preAuth": {
          "deploymentBucketName": "amplify-tictactoe-dev-213115-deployment",
          "s3Key": "amplify-builds/preAuth-6942566f5a42742f5073-build.zip"
        },
        "playMove": {
          "deploymentBucketName": "amplify-tictactoe-dev-213115-deployment",
          "s3Key": "amplify-builds/playMove-33675466537a55345731-build.zip"
        },
        "addExpoToken": {
          "deploymentBucketName": "amplify-tictactoe-dev-213115-deployment",
          "s3Key": "amplify-builds/addExpoToken-5a4b4d454b5769306473-build.zip"
        }
      }
    }
  }
}